{
	"info": {
		"_postman_id": "0cd4dfd5-0c49-4f29-81b5-3f5480ee776b",
		"name": "Crea React API REST",
		"schema": "https://schema.getpostman.com/json/collection/v2.1.0/collection.json"
	},
	"item": [
		{
			"name": "Créer un nouvel utilisateur",
			"request": {
				"method": "POST",
				"header": [],
				"body": {
					"mode": "raw",
					"raw": "{\n    \"username\": \"tizzo\",\n    \"email\": \"tim@octree.ch\",\n    \"password\": \"pintade\"\n }",
					"options": {
						"raw": {
							"language": "json"
						}
					}
				},
				"url": {
					"raw": "http://localhost:1337/auth/local/register",
					"protocol": "http",
					"host": [
						"localhost"
					],
					"port": "1337",
					"path": [
						"auth",
						"local",
						"register"
					]
				}
			},
			"response": []
		},
		{
			"name": "Récupérer son profil",
			"request": {
				"auth": {
					"type": "bearer",
					"bearer": [
						{
							"key": "token",
							"value": "eyJhbGciOiJIUzI1NiIsInR5cCI6IkpXVCJ9.eyJpZCI6MSwiaWF0IjoxNjIzNjg0ODA4LCJleHAiOjE2MjYyNzY4MDh9.aE7tihhcHyhngTznOFC6GZCtEKaPqPNizumJeSVYs6s",
							"type": "string"
						}
					]
				},
				"method": "GET",
				"header": [],
				"url": {
					"raw": "http://localhost:1337/users/1",
					"protocol": "http",
					"host": [
						"localhost"
					],
					"port": "1337",
					"path": [
						"users",
						"1"
					]
				}
			},
			"response": []
		},
		{
			"name": "Création d'un poste",
			"request": {
				"auth": {
					"type": "bearer",
					"bearer": [
						{
							"key": "token",
							"value": "eyJhbGciOiJIUzI1NiIsInR5cCI6IkpXVCJ9.eyJpZCI6MSwiaWF0IjoxNjIzNjg0ODA4LCJleHAiOjE2MjYyNzY4MDh9.aE7tihhcHyhngTznOFC6GZCtEKaPqPNizumJeSVYs6s",
							"type": "string"
						}
					]
				},
				"method": "POST",
				"header": [],
				"body": {
					"mode": "raw",
					"raw": "{\n    \"content\": \"Hey, je suis un poste !\"\n}",
					"options": {
						"raw": {
							"language": "json"
						}
					}
				},
				"url": {
					"raw": "http://localhost:1337/posts",
					"protocol": "http",
					"host": [
						"localhost"
					],
					"port": "1337",
					"path": [
						"posts"
					]
				}
			},
			"response": []
		},
		{
			"name": "Récupérer la liste des postes",
			"request": {
				"auth": {
					"type": "bearer",
					"bearer": [
						{
							"key": "token",
							"value": "eyJhbGciOiJIUzI1NiIsInR5cCI6IkpXVCJ9.eyJpZCI6MSwiaWF0IjoxNjIzNjg0ODA4LCJleHAiOjE2MjYyNzY4MDh9.aE7tihhcHyhngTznOFC6GZCtEKaPqPNizumJeSVYs6s",
							"type": "string"
						}
					]
				},
				"method": "GET",
				"header": [],
				"url": {
					"raw": "http://localhost:1337/posts",
					"protocol": "http",
					"host": [
						"localhost"
					],
					"port": "1337",
					"path": [
						"posts"
					]
				}
			},
			"response": []
		},
		{
			"name": "Modifier son profil",
			"request": {
				"auth": {
					"type": "bearer",
					"bearer": [
						{
							"key": "token",
							"value": "eyJhbGciOiJIUzI1NiIsInR5cCI6IkpXVCJ9.eyJpZCI6MSwiaWF0IjoxNjIzNjg0ODA4LCJleHAiOjE2MjYyNzY4MDh9.aE7tihhcHyhngTznOFC6GZCtEKaPqPNizumJeSVYs6s",
							"type": "string"
						}
					]
				},
				"method": "PUT",
				"header": [],
				"body": {
					"mode": "raw",
					"raw": "{\n    \"firstname\": \"Tim\",\n    \"lastname\": \"Izzo\"\n}",
					"options": {
						"raw": {
							"language": "json"
						}
					}
				},
				"url": {
					"raw": "http://localhost:1337/users/1",
					"protocol": "http",
					"host": [
						"localhost"
					],
					"port": "1337",
					"path": [
						"users",
						"1"
					]
				}
			},
			"response": []
		}
	]
}